<svg xmlns="http://www.w3.org/2000/svg" width="266" height="183" viewBox="0 0 266 183">
    <g fill="#00D770" fill-rule="evenodd">
        <path d="M205.778 215.002L99.112 242.978l28.273-105.516 106.84-28.628-28.447 106.168zM46.856 58.628l78.213 78.214-28.273 105.516-78.388-77.561L46.856 58.628zm108.178-28.986l77.233 77.234-105.502 28.27L49.53 57.912l105.503-28.27zm81.866 78.475l-81.15-81.15L44.899 56.672 15.73 165.52l80.845 79.993.486.48 109.999-28.849.672-.177 29.167-108.85z" opacity=".5" transform="translate(-93 -17)"/>
        <path d="M316.778 244.002l-106.666 27.976 28.273-105.516 106.84-28.628-28.447 106.168zM157.856 87.628l78.213 78.214-28.273 105.516-78.388-77.561 28.448-106.169zm108.178-28.986l77.233 77.234-105.502 28.27-77.234-77.234 105.503-28.27zm81.866 78.475l-81.15-81.15-110.852 29.704-29.167 108.85 80.845 79.993.486.48 109.999-28.849.672-.177 29.167-108.85z" transform="translate(-93 -17)"/>
    </g>
</svg>
